<?xml version="1.0" encoding="UTF-8" standalone="no"?>
<svg
   xmlns:dc="http://purl.org/dc/elements/1.1/"
   xmlns:cc="http://creativecommons.org/ns#"
   xmlns:rdf="http://www.w3.org/1999/02/22-rdf-syntax-ns#"
   xmlns:svg="http://www.w3.org/2000/svg"
   xmlns="http://www.w3.org/2000/svg"
   xmlns:sodipodi="http://sodipodi.sourceforge.net/DTD/sodipodi-0.dtd"
   xmlns:inkscape="http://www.inkscape.org/namespaces/inkscape"
   width="128"
   height="128"
   version="1.1"
   id="svg8"
   sodipodi:docname="AirQualitySensor.svg"
   inkscape:export-filename="/home/enrique/Documentos/Programacion/app-ubuntu-phone/webthings/assets/enchufe-128.svg.png"
   inkscape:export-xdpi="349.83234"
   inkscape:export-ydpi="349.83234"
   inkscape:version="0.92.4 (5da689c313, 2019-01-14)">
  <metadata
     id="metadata14">
    <rdf:RDF>
      <cc:Work
         rdf:about="">
        <dc:format>image/svg+xml</dc:format>
        <dc:type
           rdf:resource="http://purl.org/dc/dcmitype/StillImage" />
        <dc:title></dc:title>
      </cc:Work>
    </rdf:RDF>
  </metadata>
  <defs
     id="defs12" />
  <sodipodi:namedview
     pagecolor="#ffffff"
     bordercolor="#666666"
     borderopacity="1"
     objecttolerance="10"
     gridtolerance="10"
     guidetolerance="10"
     inkscape:pageopacity="0"
     inkscape:pageshadow="2"
     inkscape:window-width="1600"
     inkscape:window-height="826"
     id="namedview10"
     showgrid="false"
     inkscape:zoom="2.6051767"
     inkscape:cx="-4.8156382"
     inkscape:cy="43.381572"
     inkscape:window-x="0"
     inkscape:window-y="0"
     inkscape:window-maximized="1"
     inkscape:current-layer="svg8"
     showguides="true"
     inkscape:guide-bbox="true">
    <sodipodi:guide
       position="29.556536,3.8385112"
       orientation="1,0"
       id="guide819"
       inkscape:locked="false" />
    <sodipodi:guide
       position="11.131683,101.72055"
       orientation="0,1"
       id="guide821"
       inkscape:locked="false" />
    <sodipodi:guide
       position="62.567733,30.70809"
       orientation="0,1"
       id="guide823"
       inkscape:locked="false" />
    <sodipodi:guide
       position="99.03359,56.042264"
       orientation="1,0"
       id="guide825"
       inkscape:locked="false" />
  </sodipodi:namedview>
  <g
     inkscape:groupmode="layer"
     id="layer1"
     inkscape:label="Layer 1"
     style="display:inline">
    <ellipse
       style="opacity:1;fill:none;fill-opacity:1;stroke:#151515;stroke-width:0.75361675;stroke-linecap:square;stroke-miterlimit:4;stroke-dasharray:none;stroke-dashoffset:10.80050564;stroke-opacity:1"
       id="path841"
       cx="64.307472"
       cy="64.664566"
       rx="60.086246"
       ry="60.64962" />
  </g>
  <g
     transform="matrix(4.7548916,0,0,5.0721296,24.801644,21.20732)"
     style="fill:#000000;fill-opacity:1"
     id="g10">
    <path
       inkscape:connector-curvature="0"
       d="m 1,3 v 2 h 3 c 0.572,0 1,0.429 1,1 v 4 c 0,1.645 1.356,3 3,3 h 6 V 11 H 8 C 7.429,11 7,10.571 7,10 V 6 C 7,4.355 5.645,3 4,3 Z"
       style="color:#bebebe;font-weight:400;line-height:normal;font-family:sans-serif;font-variant-ligatures:normal;font-variant-position:normal;font-variant-caps:normal;font-variant-numeric:normal;font-variant-alternates:normal;font-feature-settings:normal;text-indent:0;text-align:start;text-decoration:none;text-decoration-line:none;text-decoration-style:solid;text-decoration-color:#000000;text-transform:none;text-orientation:mixed;white-space:normal;shape-padding:0;overflow:visible;isolation:auto;mix-blend-mode:normal;marker:none;fill:#000000;fill-opacity:1"
       font-weight="400"
       overflow="visible"
       id="path2" />
    <path
       inkscape:connector-curvature="0"
       d="m 11.99,8.99 a 1,1 0 0 0 -0.697,1.717 L 12.586,12 11.293,13.293 a 1,1 0 1 0 1.414,1.414 L 15.414,12 12.707,9.293 A 1,1 0 0 0 11.99,8.99 Z m 0,-8 A 1,1 0 0 0 11.293,2.707 L 12.586,4 11.293,5.293 a 1,1 0 1 0 1.414,1.414 L 15.414,4 12.707,1.293 A 1,1 0 0 0 11.99,0.99 Z"
       style="color:#bebebe;font-weight:400;line-height:normal;font-family:sans-serif;font-variant-ligatures:normal;font-variant-position:normal;font-variant-caps:normal;font-variant-numeric:normal;font-variant-alternates:normal;font-feature-settings:normal;text-indent:0;text-align:start;text-decoration:none;text-decoration-line:none;text-decoration-style:solid;text-decoration-color:#000000;text-transform:none;text-orientation:mixed;white-space:normal;shape-padding:0;overflow:visible;isolation:auto;mix-blend-mode:normal;marker:none;fill:#000000;fill-opacity:1"
       font-weight="400"
       overflow="visible"
       id="path4" />
    <path
       inkscape:connector-curvature="0"
       d="M 8,3 C 7.77,3 7.56,3.044 7.344,3.094 7.825,3.644 8.205,4.271 8.375,5 H 14 V 3 Z m -7,8 v 2 H 4 C 4.23,13 4.44,12.956 4.656,12.906 4.175,12.356 3.795,11.729 3.625,11 Z"
       style="color:#bebebe;font-weight:400;line-height:normal;font-family:'Andale Mono';text-indent:0;text-align:start;text-decoration:none;text-decoration-line:none;text-transform:none;overflow:visible;marker:none;fill:#000000;fill-opacity:1"
       font-weight="400"
       overflow="visible"
       id="path6" />
    <path
       inkscape:connector-curvature="0"
       d="m 11,9 h 1 v 1 h -1 z m 0,5 h 1 v 1 H 11 Z M 11,1 h 1 v 1 h -1 z m 0,5 h 1 v 1 h -1 z"
       style="color:#000000;overflow:visible;marker:none;fill:#000000;fill-opacity:1"
       overflow="visible"
       id="path8" />
  </g>
</svg>
