<?xml version="1.0" encoding="UTF-8" standalone="no"?>
<svg
   xmlns:dc="http://purl.org/dc/elements/1.1/"
   xmlns:cc="http://creativecommons.org/ns#"
   xmlns:rdf="http://www.w3.org/1999/02/22-rdf-syntax-ns#"
   xmlns:svg="http://www.w3.org/2000/svg"
   xmlns="http://www.w3.org/2000/svg"
   xmlns:sodipodi="http://sodipodi.sourceforge.net/DTD/sodipodi-0.dtd"
   xmlns:inkscape="http://www.inkscape.org/namespaces/inkscape"
   width="128"
   height="128"
   version="1.1"
   id="svg8"
   sodipodi:docname="SmartPlug.svg.svg"
   inkscape:export-filename="/home/enrique/Documentos/Programacion/app-ubuntu-phone/webthings/assets/enchufe-128.svg.png"
   inkscape:export-xdpi="349.83234"
   inkscape:export-ydpi="349.83234"
   inkscape:version="0.92.4 (5da689c313, 2019-01-14)">
  <metadata
     id="metadata14">
    <rdf:RDF>
      <cc:Work
         rdf:about="">
        <dc:format>image/svg+xml</dc:format>
        <dc:type
           rdf:resource="http://purl.org/dc/dcmitype/StillImage" />
        <dc:title></dc:title>
      </cc:Work>
    </rdf:RDF>
  </metadata>
  <defs
     id="defs12" />
  <sodipodi:namedview
     pagecolor="#ffffff"
     bordercolor="#666666"
     borderopacity="1"
     objecttolerance="10"
     gridtolerance="10"
     guidetolerance="10"
     inkscape:pageopacity="0"
     inkscape:pageshadow="2"
     inkscape:window-width="1600"
     inkscape:window-height="826"
     id="namedview10"
     showgrid="false"
     inkscape:zoom="2.6051767"
     inkscape:cx="-4.8156382"
     inkscape:cy="43.381572"
     inkscape:window-x="0"
     inkscape:window-y="0"
     inkscape:window-maximized="1"
     inkscape:current-layer="svg8"
     showguides="true"
     inkscape:guide-bbox="true">
    <sodipodi:guide
       position="29.556536,3.8385112"
       orientation="1,0"
       id="guide819"
       inkscape:locked="false" />
    <sodipodi:guide
       position="47.98139,101.3367"
       orientation="0,1"
       id="guide821"
       inkscape:locked="false" />
    <sodipodi:guide
       position="62.567733,30.70809"
       orientation="0,1"
       id="guide823"
       inkscape:locked="false" />
    <sodipodi:guide
       position="99.03359,56.042264"
       orientation="1,0"
       id="guide825"
       inkscape:locked="false" />
  </sodipodi:namedview>
  <g
     inkscape:groupmode="layer"
     id="layer1"
     inkscape:label="Layer 1"
     style="display:inline">
    <ellipse
       style="opacity:1;fill:none;fill-opacity:1;stroke:#151515;stroke-width:0.75361675;stroke-linecap:square;stroke-miterlimit:4;stroke-dasharray:none;stroke-dashoffset:10.80050564;stroke-opacity:1"
       id="path841"
       cx="64.307472"
       cy="64.664566"
       rx="60.086246"
       ry="60.64962" />
  </g>
  <g
     id="g951"
     transform="matrix(0.17528108,0,0,0.17916818,29.293197,26.6633)">
    <path
       inkscape:connector-curvature="0"
       d="M 313.001,0 H 81.999 C 36.785,0 0,36.784 0,81.998 V 312.991 C 0,358.211 36.785,395 81.999,395 H 313.001 C 358.216,395 395,358.211 395,312.991 V 81.998 C 395,36.784 358.216,0 313.001,0 Z M 380,312.991 C 380,349.94 349.945,380 313.001,380 H 81.999 C 45.056,380 15,349.94 15,312.991 V 81.998 C 15,45.055 45.056,15 81.999,15 H 313.001 C 349.945,15 380,45.055 380,81.998 Z"
       id="path945" />
    <path
       inkscape:connector-curvature="0"
       d="m 197.5,52.5 c -38.059,0 -68.912,30.855 -68.912,68.918 0,38.059 30.854,68.906 68.912,68.906 38.058,0 68.912,-30.847 68.912,-68.906 C 266.412,83.355 235.559,52.5 197.5,52.5 Z m -15.534,88.912 c 0,5.595 -4.536,10.131 -10.131,10.131 -5.595,0 -10.131,-4.536 -10.131,-10.131 v -39.988 c 0,-5.595 4.536,-10.131 10.131,-10.131 5.595,0 10.131,4.536 10.131,10.131 z m 51.331,0 c 0,5.595 -4.536,10.131 -10.131,10.131 -5.595,0 -10.131,-4.536 -10.131,-10.131 v -39.988 c 0,-5.595 4.536,-10.131 10.131,-10.131 5.595,0 10.131,4.536 10.131,10.131 z"
       id="path947" />
    <path
       inkscape:connector-curvature="0"
       d="m 250.706,235.388 h -18.087 v -28.025 c 0,-5.595 -4.536,-10.131 -10.131,-10.131 -5.595,0 -10.131,4.536 -10.131,10.131 v 28.025 h -29.715 v -28.025 c 0,-5.595 -4.536,-10.131 -10.131,-10.131 -5.595,0 -10.131,4.536 -10.131,10.131 v 28.025 h -18.088 c -3.73,0 -6.754,3.021 -6.754,6.76 v 7.422 c 0,2.914 1.844,5.389 4.429,6.342 2.187,25.108 21.015,45.453 45.401,49.933 V 342.5 c 0,5.595 4.536,10.131 10.131,10.131 5.595,0 10.131,-4.536 10.131,-10.131 v -36.656 c 24.386,-4.48 43.215,-24.825 45.401,-49.933 2.585,-0.953 4.43,-3.428 4.43,-6.342 v -7.422 c 10e-4,-3.738 -3.024,-6.759 -6.755,-6.759 z"
       id="path949" />
  </g>
</svg>
